…
codon_compared <- mtb %>% 
  group_by(AmAcid) %>% 
  mutate(total = sum(Number),
         n_codons = n(),
         expected = total / n_codons)
codon_compared

## # A tibble: 64 x 7
## # Groups:   AmAcid [21]
##    AmAcid Codon Number PerThous  total n_codons expected
##    <fct>  <fct>  <int>    <dbl>  <int>    <int>    <dbl>
##  1 Gly    GGG    25874    19.2  132810        4   33202.
##  2 Gly    GGA    13306     9.9  132810        4   33202.
##  3 Gly    GGT    25320    18.8  132810        4   33202.
##  4 Gly    GGC    68310    50.8  132810        4   33202.
##  5 Glu    GAG    41103    30.6   62870        2   31435 
##  6 Glu    GAA    21767    16.2   62870        2   31435 
##  7 Asp    GAT    21165    15.8   77852        2   38926 
##  8 Asp    GAC    56687    42.2   77852        2   38926 
##  9 Val    GTG    53942    40.1  114991        4   28748.
## 10 Val    GTA     6372     4.74 114991        4   28748.
## # … with 54 more rows
…
