Exercise solution for Chapter 2, Part 1 | CSU MSMB Group Study
…
Next, calculate the observed frequencies for each codon seen in the dataset:

codon_observed <- full_join(mtb, codon_expected, by = "AmAcid") %>%
  group_by(AmAcid) %>%
  mutate(am_length = sum(Number))%>%
  mutate(prob_observed = Number / am_length) %>%
  select(-codon_no, -am_length) %>%
  mutate(expected_PerThous = Number*prob_codon)

## Warning: Column `AmAcid` joining factor and character vector, coercing into
## character vector

codon_observed

## # A tibble: 64 x 7
## # Groups:   AmAcid [21]
##    AmAcid Codon Number PerThous prob_codon prob_observed expected_PerThous
##    <chr>  <fct>  <int>    <dbl>      <dbl>         <dbl>             <dbl>
##  1 Gly    GGG    25874    19.2        0.25        0.195              6468.
##  2 Gly    GGA    13306     9.9        0.25        0.100              3326.
##  3 Gly    GGT    25320    18.8        0.25        0.191              6330 
##  4 Gly    GGC    68310    50.8        0.25        0.514             17078.
##  5 Glu    GAG    41103    30.6        0.5         0.654             20552.
##  6 Glu    GAA    21767    16.2        0.5         0.346             10884.
##  7 Asp    GAT    21165    15.8        0.5         0.272             10582.
##  8 Asp    GAC    56687    42.2        0.5         0.728             28344.
##  9 Val    GTG    53942    40.1        0.25        0.469             13486.
## 10 Val    GTA     6372     4.74       0.25        0.0554             1593 
## # … with 54 more rows
…
